%YAML 1.1
%TAG !u! tag:unity3d.com,2011:
--- !u!74 &7400000
AnimationClip:
  m_ObjectHideFlags: 0
  m_CorrespondingSourceObject: {fileID: 0}
  m_PrefabInstance: {fileID: 0}
  m_PrefabAsset: {fileID: 0}
  m_Name: DadAttack
  serializedVersion: 6
  m_Legacy: 0
  m_Compressed: 0
  m_UseHighQualityCurve: 1
  m_RotationCurves: []
  m_CompressedRotationCurves: []
  m_EulerCurves: []
  m_PositionCurves: []
  m_ScaleCurves: []
  m_FloatCurves: []
  m_PPtrCurves:
  - curve:
    - time: 0
      value: {fileID: 21300000, guid: fd0169ee5255d08409e759cccdddfef9, type: 3}
    - time: 0.16666667
      value: {fileID: 21300000, guid: 7c870ce51dd840340b135ff1e2e40667, type: 3}
    - time: 0.33333334
      value: {fileID: 21300000, guid: 3e6ace08f51d18e4d82f7957fc7d3b94, type: 3}
    - time: 0.48333332
      value: {fileID: 21300000, guid: 91dc533a82991cd41a471f0634cb3f7e, type: 3}
    - time: 0.6666667
      value: {fileID: 21300000, guid: 60400e73fd9df9540a15cb6b7a778254, type: 3}
    - time: 0.81666666
      value: {fileID: 21300000, guid: 6b6bc47828b15f64a973c842ab39e50e, type: 3}
    - time: 0.96666664
      value: {fileID: 21300000, guid: 2f172af65bea7ad4ca0128cf8b54719b, type: 3}
    - time: 1.1333333
      value: {fileID: 21300000, guid: 2ab348a72249cbe4fb03d120eae0074a, type: 3}
    - time: 1.3166667
      value: {fileID: 21300000, guid: b9de9870e6477b64aaf963a72bbe3f3e, type: 3}
    - time: 1.45
      value: {fileID: 21300000, guid: 994c91363073d4042af7a0cbca5e0bda, type: 3}
    - time: 1.6166667
      value: {fileID: 21300000, guid: 994c91363073d4042af7a0cbca5e0bda, type: 3}
    attribute: m_Sprite
    path: 
    classID: 212
    script: {fileID: 0}
  m_SampleRate: 60
  m_WrapMode: 0
  m_Bounds:
    m_Center: {x: 0, y: 0, z: 0}
    m_Extent: {x: 0, y: 0, z: 0}
  m_ClipBindingConstant:
    genericBindings:
    - serializedVersion: 2
      path: 0
      attribute: 0
      script: {fileID: 0}
      typeID: 212
      customType: 23
      isPPtrCurve: 1
    pptrCurveMapping:
    - {fileID: 21300000, guid: fd0169ee5255d08409e759cccdddfef9, type: 3}
    - {fileID: 21300000, guid: 7c870ce51dd840340b135ff1e2e40667, type: 3}
    - {fileID: 21300000, guid: 3e6ace08f51d18e4d82f7957fc7d3b94, type: 3}
    - {fileID: 21300000, guid: 91dc533a82991cd41a471f0634cb3f7e, type: 3}
    - {fileID: 21300000, guid: 60400e73fd9df9540a15cb6b7a778254, type: 3}
    - {fileID: 21300000, guid: 6b6bc47828b15f64a973c842ab39e50e, type: 3}
    - {fileID: 21300000, guid: 2f172af65bea7ad4ca0128cf8b54719b, type: 3}
    - {fileID: 21300000, guid: 2ab348a72249cbe4fb03d120eae0074a, type: 3}
    - {fileID: 21300000, guid: b9de9870e6477b64aaf963a72bbe3f3e, type: 3}
    - {fileID: 21300000, guid: 994c91363073d4042af7a0cbca5e0bda, type: 3}
    - {fileID: 21300000, guid: 994c91363073d4042af7a0cbca5e0bda, type: 3}
  m_AnimationClipSettings:
    serializedVersion: 2
    m_AdditiveReferencePoseClip: {fileID: 0}
    m_AdditiveReferencePoseTime: 0
    m_StartTime: 0
    m_StopTime: 1.6333333
    m_OrientationOffsetY: 0
    m_Level: 0
    m_CycleOffset: 0
    m_HasAdditiveReferencePose: 0
    m_LoopTime: 1
    m_LoopBlend: 0
    m_LoopBlendOrientation: 0
    m_LoopBlendPositionY: 0
    m_LoopBlendPositionXZ: 0
    m_KeepOriginalOrientation: 0
    m_KeepOriginalPositionY: 1
    m_KeepOriginalPositionXZ: 0
    m_HeightFromFeet: 0
    m_Mirror: 0
  m_EditorCurves: []
  m_EulerEditorCurves: []
  m_HasGenericRootTransform: 0
  m_HasMotionFloatCurves: 0
  m_Events: []
